In-class_Ex07: Visualising, Analysing and Forecasting Time-series Data: tidyverts methods – ISSS608 Coursework
…
7.2 Getting Started

pacman::p_load(tidyverse, tsibble, feasts, fable, seasonal)

7.2.1 Importing the data

ts_data <- read_csv(
  "visitor_arrivals_by_air.csv")

ts_data$`Month-Year` <- dmy(
  ts_data$`Month-Year`)

ts_data

# A tibble: 144 × 34
   `Month-Year` `Republic of South Africa` Canada   USA Bangladesh Brunei China
   <date>                            <dbl>  <dbl> <dbl>      <dbl>  <dbl> <dbl>
 1 2008-01-01                         3680   6972 31155       6786   3729 79599
 2 2008-02-01                         1662   6056 27738       6314   3070 82074
 3 2008-03-01                         3394   6220 31349       7502   4805 72546
 4 2008-04-01                         3337   4764 26376       7333   3096 76112
 5 2008-05-01                         2089   4460 26788       7988   3586 64808
 6 2008-06-01                         2515   3888 29725       8301   5284 55238
 7 2008-07-01                         2919   5313 33183       9004   4070 80747
 8 2008-08-01                         2471   4519 27427       7913   4183 66625
 9 2008-09-01                         2492   3421 21588       7549   3160 52649
10 2008-10-01                         3023   4756 25112       7527   2983 54423
# ℹ 134 more rows
# ℹ 27 more variables: `Hong Kong SAR (China)` <dbl>, India <dbl>,
#   Indonesia <dbl>, Japan <dbl>, `South Korea` <dbl>, Kuwait <dbl>,
#   Malaysia <dbl>, Myanmar <dbl>, Pakistan <dbl>, Philippines <dbl>,
#   `Saudi Arabia` <dbl>, `Sri Lanka` <dbl>, Taiwan <dbl>, Thailand <dbl>,
#   `United Arab Emirates` <dbl>, Vietnam <dbl>, `Belgium & Luxembourg` <dbl>,
#   Finland <dbl>, France <dbl>, Germany <dbl>, Italy <dbl>, …
…
fit_ETS %>%
  tidy()

# A tibble: 45 × 4
   Country .model      term      estimate
   <chr>   <chr>       <chr>        <dbl>
 1 Vietnam SES         alpha     1.00    
 2 Vietnam SES         l[0]  10313.      
 3 Vietnam Holt        alpha     1.00    
 4 Vietnam Holt        beta      0.000100
 5 Vietnam Holt        l[0]  13673.      
 6 Vietnam Holt        b[0]    526.      
 7 Vietnam damped Holt alpha     1.00    
 8 Vietnam damped Holt beta      0.000110
 9 Vietnam damped Holt phi       0.978   
10 Vietnam damped Holt l[0]  13257.      
# ℹ 35 more rows
…
